digraph dp {
    graph [compound=true, rankdir=BT, pad=.1, nodesep=.1, ranksep=.1, newrank=true];
    node [shape=box, margin=0];

    label="Dramatis Personæ (day 80)";
    fontsize=64;

    subgraph cluster_legend {
	node [shape=plaintext, fontsize=12];
	label="";
	style=invis;

	{ rank=same;
	  
	  dummy1 [label="", width=.1];
	  dummy2 [label="", width=.1];
	  dummy3 [label="", width=.1];
	  dummy4 [label="", width=.1];

	  edge [minlen=2];
	  
	  "Commanded/influenced by" -> dummy1 [penwidth=1.5];
	  "Wants to harm" -> dummy2 [color=red, penwidth=.5];
	  "Current relation" -> dummy3 [color=grey33, style=dashed];
	  "Former relation" -> dummy4 [color=grey66, style=dotted];
	}

	{ rank=same;
	  node [shape=box];

	  "Player\ncharacter" [shape=doublecircle, color=blue, width=1];
	  "Deity or\nascended\nbeing" [shape=doublecircle, width=1, fontsize=10];
	  "Loose group" [style=dotted];
	  "Antagonist" [color=red];
	  
	}

	/* pcl -> dummy1 [style=invis]; */
    }

    subgraph cluster_midvale {
	style=solid;
	color=black;
	label="MIDVALE";
	fontsize=32;
	
	subgraph cluster_pc {
	    color=grey;
	    label="The Party";
	    fontsize=16;
	    
	    /* PCs */
	    node [color=blue, shape=doublecircle];

	    { rank=same;
	      steryx [label="Steryx\nRedstor",width=1];
	      stitch [label="Stitch\nTegren",width=1];
	      sylph [label="Sylph\nStaghelm",width=1];
	      balthier [label="Balthier\nRenard",width=1];
	    }
	}

	/* ? */
	node [color=black, shape=box];

	{ rank=same;
	  varnic [label="Augustas\nVarnic"];
	  varniclady [label="Terica\nVarnic"];
	}
	
	bfather [label="Balthtier's\nfather"];
	flintlock [label="Lennard\nFlintlock"];
	
	children [label="Missing\nchildren", style=dotted];
	
	markus [label="†Markus\nMuddle"];

	{ rank=sink; dm [label="THE DOVE\nMOTHER", shape=doublecircle,width=1]; }
	dmc [label="Dove Mother\nfollowers", style=dotted];

	subgraph cluster_gn {
	    color=grey;
	    label="The Grey Knights";
	    fontsize=16;
	    
	    krean [label="Krean"];
	    greyknights [label="Grey Knight\nsoldiers", style=dotted];
	    lily [label="Lily\n(former succubus)"]
	}

	subgraph cluster_ag {
	    color=grey;
	    label="The Assassins Guild";
	    fontsize=16;
	    
	    blake [label="Blake"];
	    assassins [label="Guild\nassassins", style=dotted];
	}
	
	/* Bad guys */
	node [color=red];
	{ rank=sink; dread [label="THE DREAD\nEMPEROR"]; }
	succubi [label="Succubi\nlieutenants", style=dotted];

	{ rank=same;
	  flush [label="Flush"];
	  laquart [label="Larissa\nLaquart"];
	}

	subgraph cluster_db {
	    color=grey;
	    label="The Duskblades";
	    fontsize=16;

	    lavis [label="†Lavis\nBlackclaw"];
	}

	{ rank=same;
	  rieta [label="†Rieta\nRedstor"];
	  ekmon [label="Ekmon\nRedstor"];
	}
    }

    { dummy1, dummy2, dummy3, dummy4 } -> { steryx, stitch, balthier, sylph } [style=invis, weight=0];

    /* Commanded by */
    edge [weight=100, penwidth=1.5];
    
    flush -> laquart [label="?",dir=both];
    dmc -> dm [tailport=n];
    succubi -> dread;
    dread -> children [dir=back];
    greyknights -> krean [tailport=n];
    lily -> krean;
    rieta -> lavis;
    ekmon -> lavis [label="?"];
    assassins -> blake [tailport=n];
    markus -> flush;
    flintlock -> bfather;

    /* Wants to kill */
    edge [weight=3, penwidth=.5, color=red];

    { steryx, sylph, stitch, balthier } -> dread [dir=both];
    { steryx, sylph, stitch, balthier } -> laquart [dir=back];
    balthier -> laquart;
    { lily, krean } -> dm;

    /* Current relations with */
    edge [weight=2, style=dashed, color=grey33];
    
    balthier -> bfather [dir=both];

    { steryx, stitch, balthier } -> blake;    
    { balthier, stitch, steryx } -> varnic [dir=both];
    sylph -> varnic [dir=back];
    
    rieta -> ekmon [dir=both];
    
    varnic -> varniclady [dir=both];

    { steryx, stitch } -> krean;

    sylph -> lily;

    /* Former relations with */
    edge [weight=1, penwidth=1, style=dotted, color=grey66];
    
    stitch -> laquart;
    steryx -> { rieta, ekmon } [dir=both];
    blake -> flintlock;
    lily -> dread;
    flintlock -> markus;

    { steryx, stitch, balthier } -> dm;
    { steryx, stitch } -> lily;
}
